{
   "ResponseHeader":    {
      "Version": "1.0.0",
      "MsgUid": "322cfaee-4dd7-11eb-ae93-0242ac130002",
      "Source": "CHANNEL NAME",
      "ServiceId": "ACCLOAD",
      "ReqDateTime": "2021-01-03T15:13:07.498Z",
      "RspDateTime": 1640599964585,
      "ResponseCode": "000",
      "ResponseType": "Success",
      "ProcessingTime": 706,
      "EncryptionKey": null,
      "ResponseDescription": "Operation Successful",
      "LocalizedResponseDescription":       {
         "Locale": "en",
         "LocalizedDescription": "Operation Successful"
      },
      "CustomerSpecificResponseDescriptionList": null,
      "HeaderUserDataList": null
   },
   "AccountLoadResponseDetails":    {
      "Action": "1",
      "ExtCode": "888888888828282",
      "BaseAccountDetails":       {
         "AccountIdentifier":          {
            "AccountNumber": "1234567891",
            "InstitutionCode": "MDI",
            "Currency":             {
               "CurrCode": "818",
               "AlphaCode": null
            },
            "UniqueId": null
         },
         "LoadAmount": null,
         "BillingAmount":          {
            "Amount": 1000,
            "Currency":             {
               "CurrCode": "818",
               "AlphaCode": "EGP"
            }
         },
         "CommissionAmount":          {
            "Amount": 0,
            "Currency":             {
               "CurrCode": "818",
               "AlphaCode": "EGP"
            }
         },
         "ForexRate": null,
         "AvailableBalance":          {
            "Amount": 11000,
            "Currency":             {
               "CurrCode": "818",
               "AlphaCode": "EGP"
            }
         },
         "BlockedAmount":          {
            "Amount": 0,
            "Currency":             {
               "CurrCode": "818",
               "AlphaCode": "EGP"
            }
         }
      },
      "TrsfAccountDetails": null,
      "ExtAccountNumber": null
   }
}